module ticker

go 1.20

require (
	github.com/adshao/go-binance/v2 v2.4.5
	github.com/lib/pq v1.10.9
)

require (
	github.com/bitly/go-simplejson v0.5.0 // indirect
	github.com/gorilla/websocket v1.5.0 // indirect
	github.com/json-iterator/go v1.1.12 // indirect
	github.com/kr/text v0.2.0 // indirect
	github.com/modern-go/concurrent v0.0.0-20180228061459-e0a39a4cb421 // indirect
	github.com/modern-go/reflect2 v1.0.2 // indirect
)
